alu/alu_tb.txt
VCD info: dumpfile alu_wave.vcd opened for output.

=== Testing ADDITION (A + B) ===
✅ PASS: A = 12153524, B = c0895e81, Result = 0d29e93a5, Time: 5 ns
✅ PASS: A = 8484d609, B = b1f05663, Result = 136752c6c, Time: 10 ns
✅ PASS: A = 06b97b0d, B = 46df998d, Result = 04d99149a, Time: 15 ns
✅ PASS: A = b2c28465, B = 89375212, Result = 13bf9d677, Time: 20 ns
✅ PASS: A = 00f3e301, B = 06d7cd0d, Result = 007cbb00e, Time: 25 ns
✅ PASS: A = 3b23f176, B = 1e8dcd3d, Result = 059b1beb3, Time: 30 ns
✅ PASS: A = 76d457ed, B = 462df78c, Result = 0bd024f79, Time: 35 ns
✅ PASS: A = 7cfde9f9, B = e33724c6, Result = 160350ebf, Time: 40 ns
✅ PASS: A = e2f784c5, B = d513d2aa, Result = 1b80b576f, Time: 45 ns
✅ PASS: A = 72aff7e5, B = bbd27277, Result = 12e826a5c, Time: 50 ns
✅ PASS: A = 8932d612, B = 47ecdb8f, Result = 0d11fb1a1, Time: 55 ns
✅ PASS: A = 793069f2, B = e77696ce, Result = 160a700c0, Time: 60 ns
✅ PASS: A = f4007ae8, B = e2ca4ec5, Result = 1d6cac9ad, Time: 65 ns
✅ PASS: A = 2e58495c, B = de8e28bd, Result = 10ce67219, Time: 70 ns
✅ PASS: A = 96ab582d, B = b2a72665, Result = 149527e92, Time: 75 ns
✅ PASS: A = b1ef6263, B = 0573870a, Result = 0b762e96d, Time: 80 ns
✅ PASS: A = c03b2280, B = 10642120, Result = 0d09f43a0, Time: 85 ns
✅ PASS: A = 557845aa, B = cecccc9d, Result = 124451247, Time: 90 ns
✅ PASS: A = cb203e96, B = 8983b813, Result = 154a3f6a9, Time: 95 ns
✅ PASS: A = 86bc380d, B = a9a7d653, Result = 130640e60, Time: 100 ns
✅ PASS: A = 359fdd6b, B = eaa62ad5, Result = 120460840, Time: 105 ns
✅ PASS: A = 81174a02, B = d7563eae, Result = 1586d88b0, Time: 110 ns
✅ PASS: A = 0effe91d, B = e7c572cf, Result = 0f6c55bec, Time: 115 ns
✅ PASS: A = 11844923, B = 0509650a, Result = 0168dae2d, Time: 120 ns
✅ PASS: A = e5730aca, B = 9e314c3c, Result = 183a45706, Time: 125 ns
✅ PASS: A = 7968bdf2, B = 452e618a, Result = 0be971f7c, Time: 130 ns
✅ PASS: A = 20c4b341, B = ec4b34d8, Result = 10d0fe819, Time: 135 ns
✅ PASS: A = 3c20f378, B = c48a1289, Result = 100ab0601, Time: 140 ns
✅ PASS: A = 75c50deb, B = 5b0265b6, Result = 0d0c773a1, Time: 145 ns
✅ PASS: A = 634bf9c6, B = 571513ae, Result = 0ba610d74, Time: 150 ns
✅ PASS: A = de7502bc, B = 150fdd2a, Result = 0f384dfe6, Time: 155 ns
✅ PASS: A = 85d79a0b, B = b897be71, Result = 13e6f587c, Time: 160 ns
✅ PASS: A = 42f24185, B = 27f2554f, Result = 06ae496d4, Time: 165 ns
✅ PASS: A = 9dcc603b, B = 1d06333a, Result = 0bad29375, Time: 170 ns
✅ PASS: A = bf23327e, B = 0aaa4b15, Result = 0c9cd7d93, Time: 175 ns
✅ PASS: A = 78d99bf1, B = 6c9c4bd9, Result = 0e575e7ca, Time: 180 ns
✅ PASS: A = 31230762, B = 2635fb4c, Result = 0575902ae, Time: 185 ns
✅ PASS: A = 4fa1559f, B = 47b9a18f, Result = 0975af72e, Time: 190 ns
✅ PASS: A = 7c6da9f8, B = dbcd60b7, Result = 1583b0aaf, Time: 195 ns
✅ PASS: A = cfc4569f, B = ae7d945c, Result = 17e41eafb, Time: 200 ns
✅ PASS: A = adcbc05b, B = 44de3789, Result = 0f2a9f7e4, Time: 205 ns
✅ PASS: A = a4ae3249, B = e8233ed0, Result = 18cd17119, Time: 210 ns
✅ PASS: A = ebfec0d7, B = a8c7fc51, Result = 194c6bd28, Time: 215 ns
✅ PASS: A = 4b212f96, B = 061d7f0c, Result = 0513eaea2, Time: 220 ns
✅ PASS: A = e12ccec2, B = 6457edc8, Result = 14584bc8a, Time: 225 ns
✅ PASS: A = bb825a77, B = 1ef2ed3d, Result = 0da7547b4, Time: 230 ns
✅ PASS: A = 090cdb12, B = bf05007e, Result = 0c811db90, Time: 235 ns
✅ PASS: A = 36e5816d, B = 1cd9e739, Result = 053bf68a6, Time: 240 ns
✅ PASS: A = 0fd28f1f, B = e9ebf6d3, Result = 0f9be85f2, Time: 245 ns
✅ PASS: A = 42d92f85, B = bc148878, Result = 0feedb7fd, Time: 250 ns
✅ PASS: A = 2dda595b, B = 248b4b49, Result = 05265a4a4, Time: 255 ns
✅ PASS: A = 9ff2ae3f, B = 150caf2a, Result = 0b4ff5d69, Time: 260 ns
✅ PASS: A = 2c156358, B = c33f3886, Result = 0ef549bde, Time: 265 ns
✅ PASS: A = c71a0c8e, B = ce2ff29c, Result = 19549ff2a, Time: 270 ns
✅ PASS: A = 7d3599fa, B = 937dbc26, Result = 110b35620, Time: 275 ns
✅ PASS: A = 39961773, B = d18bb4a3, Result = 10b21cc16, Time: 280 ns
✅ PASS: A = 9799a82f, B = d9d292b3, Result = 1716c3ae2, Time: 285 ns
✅ PASS: A = afd8565f, B = 22290d44, Result = 0d20163a3, Time: 290 ns
✅ PASS: A = 7bf8fdf7, B = e59b36cb, Result = 1619434c2, Time: 295 ns
✅ PASS: A = f3091ae6, B = 2d28db5a, Result = 12031f640, Time: 300 ns
✅ PASS: A = 14cfc129, B = f682e2ed, Result = 10b52a416, Time: 305 ns
✅ PASS: A = ed536cda, B = b29fb665, Result = 19ff3233f, Time: 310 ns
✅ PASS: A = da8ae2b5, B = efbe94df, Result = 1ca497794, Time: 315 ns
✅ PASS: A = 3cf11979, B = 2231ff44, Result = 05f2318bd, Time: 320 ns
✅ PASS: A = e8740cd0, B = 15090b2a, Result = 0fd7d17fa, Time: 325 ns
✅ PASS: A = 55f6adab, B = 076fcf0e, Result = 05d667cb9, Time: 330 ns
✅ PASS: A = 6e5daddc, B = cd5ebc9a, Result = 13bbc6a76, Time: 335 ns
✅ PASS: A = fedf72fd, B = e1f102c3, Result = 1e0d075c0, Time: 340 ns
✅ PASS: A = 2b0eed56, B = 2779e94e, Result = 05288d6a4, Time: 345 ns
✅ PASS: A = b3d97667, B = 8531340a, Result = 1390aaa71, Time: 350 ns
✅ PASS: A = 5b6fb9b6, B = 9c0e8a38, Result = 0f77e43ee, Time: 355 ns
✅ PASS: A = 3cd18779, B = dc2bc4b8, Result = 118fd4c31, Time: 360 ns
✅ PASS: A = 4a74bf94, B = 49c65d93, Result = 0943b1d27, Time: 365 ns
✅ PASS: A = 823f2c04, B = acb7ca59, Result = 12ef6f65d, Time: 370 ns
✅ PASS: A = 6dcb69db, B = a6fcde4d, Result = 114c84828, Time: 375 ns
✅ PASS: A = 6cb0b7d9, B = b6a4266d, Result = 12354de46, Time: 380 ns
✅ PASS: A = bb45e276, B = 653b49ca, Result = 120812c40, Time: 385 ns
✅ PASS: A = 5b172db6, B = 4a937195, Result = 0a5aa9f4b, Time: 390 ns
✅ PASS: A = a3071a46, B = 02749b04, Result = 0a57bb54a, Time: 395 ns
✅ PASS: A = 7bd261f7, B = 34980769, Result = 0b06a6960, Time: 400 ns
✅ PASS: A = da6ebab4, B = 44018d88, Result = 11e70483c, Time: 405 ns
✅ PASS: A = 147cd928, B = 9690042d, Result = 0ab0cdd55, Time: 410 ns
✅ PASS: A = e3c530c7, B = 975c9c2e, Result = 17b21ccf5, Time: 415 ns
✅ PASS: A = 8477e408, B = 0e41451c, Result = 092b92924, Time: 420 ns
✅ PASS: A = fea7a6fd, B = 149e0729, Result = 11345ae26, Time: 425 ns
✅ PASS: A = 8e37901c, B = 43356786, Result = 0d16cf7a2, Time: 430 ns
✅ PASS: A = ed3408da, B = 9eb7c63d, Result = 18bebcf17, Time: 435 ns
✅ PASS: A = 334ea766, B = b855c470, Result = 0eba46bd6, Time: 440 ns
✅ PASS: A = b9f50473, B = 5d7199ba, Result = 117669e2d, Time: 445 ns
✅ PASS: A = 2f3ab35e, B = 7d4779fa, Result = 0ac822d58, Time: 450 ns
✅ PASS: A = 6a8e05d5, B = 8d24f61a, Result = 0f7b2fbef, Time: 455 ns
✅ PASS: A = dcf000b9, B = 1b876137, Result = 0f87761f0, Time: 460 ns
✅ PASS: A = 4b273796, B = 603921c0, Result = 0ab605956, Time: 465 ns
✅ PASS: A = 13259f26, B = db461ab6, Result = 0ee6bb9dc, Time: 470 ns
✅ PASS: A = 3e99837d, B = 6e5f0fdc, Result = 0acf89359, Time: 475 ns
✅ PASS: A = 43615786, B = 3c03ff78, Result = 07f6556fe, Time: 480 ns
✅ PASS: A = 3f5a9b7e, B = ed8d80db, Result = 12ce81c59, Time: 485 ns
✅ PASS: A = e7c3b6cf, B = 3ced2b79, Result = 124b0e248, Time: 490 ns
✅ PASS: A = fd28e4fa, B = b0bcee61, Result = 1ade5d35b, Time: 495 ns
✅ PASS: A = 0b940917, B = d0f578a1, Result = 0dc8981b8, Time: 500 ns

=== Testing SUBTRACTION (A - B) ===
✅ PASS: A = 43779186, B = a8639650, Result = 19b13fb36, Time: 505 ns
✅ PASS: A = 7a8c59f5, B = 9ab48835, Result = 1dfd7d1c0, Time: 510 ns
✅ PASS: A = 949a8a29, B = 60b175c1, Result = 033e91468, Time: 515 ns
✅ PASS: A = e2e574c5, B = cc01b498, Result = 016e3c02d, Time: 520 ns
✅ PASS: A = 25b27b4b, B = b98c4273, Result = 16c2638d8, Time: 525 ns
✅ PASS: A = f622e6ec, B = c550168a, Result = 030d2d062, Time: 530 ns
✅ PASS: A = 2758d14e, B = d44b80a8, Result = 1530d50a6, Time: 535 ns
✅ PASS: A = 549efda9, B = d0ca8ca1, Result = 183d47108, Time: 540 ns
✅ PASS: A = 070bb90e, B = f33466e6, Result = 113d75228, Time: 545 ns
✅ PASS: A = cfd6c09f, B = 152fb52a, Result = 0baa70b75, Time: 550 ns
✅ PASS: A = 155a1d2a, B = c6b5f48d, Result = 14ea4289d, Time: 555 ns
✅ PASS: A = 4f75ff9e, B = 9c6de638, Result = 1b3081966, Time: 560 ns
✅ PASS: A = bccfa879, B = 6464e3c8, Result = 0586ac4b1, Time: 565 ns
✅ PASS: A = 652345ca, B = 09ff4113, Result = 05b2404b7, Time: 570 ns
✅ PASS: A = 35a0c96b, B = e3b7aec7, Result = 151e91aa4, Time: 575 ns
✅ PASS: A = 5b0bddb6, B = 5d059dba, Result = 1fe063ffc, Time: 580 ns
✅ PASS: A = 6216abc4, B = 5c8295b9, Result = 00594160b, Time: 585 ns
✅ PASS: A = 492fd392, B = da269ab4, Result = 16f0938de, Time: 590 ns
✅ PASS: A = 3fbb3b7f, B = c3339086, Result = 17c87aaf9, Time: 595 ns
✅ PASS: A = 7d6df5fa, B = f92794f2, Result = 184466108, Time: 600 ns
✅ PASS: A = 19452132, B = dece5ebd, Result = 13a76c275, Time: 605 ns
✅ PASS: A = 424fcd84, B = f249a4e4, Result = 1500628a0, Time: 610 ns
✅ PASS: A = 6543cfca, B = 54a879a9, Result = 0109b5621, Time: 615 ns
✅ PASS: A = d095a8a1, B = 4765a98e, Result = 0892fff13, Time: 620 ns
✅ PASS: A = fd8b6afb, B = 85e51e0b, Result = 077a64cf0, Time: 625 ns
✅ PASS: A = f78290ef, B = 64c83dc9, Result = 092ba5326, Time: 630 ns
✅ PASS: A = 1b60e536, B = bab14875, Result = 160af9cc1, Time: 635 ns
✅ PASS: A = c7e8568f, B = 35cdbf6b, Result = 0921a9724, Time: 640 ns
✅ PASS: A = 4465e788, B = d73fb4ae, Result = 16d2632da, Time: 645 ns
✅ PASS: A = 4df3819b, B = 493e4592, Result = 004b53c09, Time: 650 ns
✅ PASS: A = 1444df28, B = 9684e02d, Result = 17dbffefb, Time: 655 ns
✅ PASS: A = 25b75f4b, B = e169b0c2, Result = 1444dae89, Time: 660 ns
✅ PASS: A = 8f1cf61e, B = 06b3050d, Result = 08869f111, Time: 665 ns
✅ PASS: A = 7679fdec, B = 0c039d18, Result = 06a7660d4, Time: 670 ns
✅ PASS: A = 68ae1bd1, B = c3761c86, Result = 1a537ff4b, Time: 675 ns
✅ PASS: A = a0c02441, B = 9dbf643b, Result = 00300c006, Time: 680 ns
✅ PASS: A = 6c44f9d8, B = 29efe953, Result = 042551085, Time: 685 ns
✅ PASS: A = ab196256, B = adac225b, Result = 1fd6d3ffb, Time: 690 ns
✅ PASS: A = f166fae2, B = 8273e204, Result = 06ef318de, Time: 695 ns
✅ PASS: A = 39ac0373, B = ec50b4d8, Result = 14d5b4e9b, Time: 700 ns
✅ PASS: A = 093e4d12, B = dc0344b8, Result = 12d3b085a, Time: 705 ns
✅ PASS: A = 9c811239, B = f287b6e5, Result = 1a9f95b54, Time: 710 ns
✅ PASS: A = d0c5dca1, B = 15890f2b, Result = 0bb3ccd76, Time: 715 ns
✅ PASS: A = 40905d81, B = 641b85c8, Result = 1dc74d7b9, Time: 720 ns
✅ PASS: A = 13b55527, B = 50d5f9a1, Result = 1c2df5b86, Time: 725 ns
✅ PASS: A = 8f8c6e1f, B = 82223a04, Result = 00d6a341b, Time: 730 ns
✅ PASS: A = 2c2d2358, B = cb5c8096, Result = 160d0a2c2, Time: 735 ns
✅ PASS: A = 0a6e9314, B = 8919b412, Result = 18154df02, Time: 740 ns
✅ PASS: A = cb227096, B = d8ace2b1, Result = 1f2758de5, Time: 745 ns
✅ PASS: A = 2ac2d555, B = f6c38eed, Result = 133ff4668, Time: 750 ns
✅ PASS: A = 158b2b2b, B = 7ab11bf5, Result = 19ada0f36, Time: 755 ns
✅ PASS: A = 56b403ad, B = 93c12227, Result = 1c2f2e186, Time: 760 ns
✅ PASS: A = 4249ff84, B = d3a8e4a7, Result = 16ea11add, Time: 765 ns
✅ PASS: A = f3d7a6e7, B = dcef90b9, Result = 016e8162e, Time: 770 ns
✅ PASS: A = a4da5649, B = 6de5bbdb, Result = 036f49a6e, Time: 775 ns
✅ PASS: A = 64ba0fc9, B = 2883b151, Result = 03c365e78, Time: 780 ns
✅ PASS: A = d0bc5ea1, B = 1546dd2a, Result = 0bb758177, Time: 785 ns
✅ PASS: A = 7d2a45fa, B = a2e62045, Result = 1da4425b5, Time: 790 ns
✅ PASS: A = 41a10583, B = be75427c, Result = 1832bc307, Time: 795 ns
✅ PASS: A = b9461472, B = ff4f3cfe, Result = 1b9f6d774, Time: 800 ns
✅ PASS: A = b455f268, B = b7dfaa6f, Result = 1fc7647f9, Time: 805 ns
✅ PASS: A = 43460d86, B = 782321f0, Result = 1cb22eb96, Time: 810 ns
✅ PASS: A = 1c719738, B = 20769140, Result = 1fbfb05f8, Time: 815 ns
✅ PASS: A = 94097628, B = 7b0da9f6, Result = 018fbcc32, Time: 820 ns
✅ PASS: A = e2bf1ac5, B = 602831c0, Result = 08296e905, Time: 825 ns
✅ PASS: A = 3a625f74, B = 1cde7139, Result = 01d83ee3b, Time: 830 ns
✅ PASS: A = d86a6ab0, B = 1e1c873c, Result = 0ba4de374, Time: 835 ns
✅ PASS: A = 1521932a, B = 3124d362, Result = 1e3fcbfc8, Time: 840 ns
✅ PASS: A = 0aec3515, B = f0b14ee1, Result = 11a3ae634, Time: 845 ns
✅ PASS: A = 0be29d17, B = a18bee43, Result = 16a56aed4, Time: 850 ns
✅ PASS: A = 64b5e3c9, B = c3360486, Result = 1a17fdf43, Time: 855 ns
✅ PASS: A = 1297cb25, B = 60f69dc1, Result = 1b1a12d64, Time: 860 ns
✅ PASS: A = c69da28d, B = ad67e25a, Result = 01935c033, Time: 865 ns
✅ PASS: A = 03d62707, B = 165b7b2c, Result = 1ed7aabdb, Time: 870 ns
✅ PASS: A = 060a5d0c, B = b8ade671, Result = 14d5c769b, Time: 875 ns
✅ PASS: A = 9de17c3b, B = 5b60e5b6, Result = 042809685, Time: 880 ns
✅ PASS: A = fbdfc2f7, B = cf14ce9e, Result = 02ccaf459, Time: 885 ns
✅ PASS: A = ae78585c, B = 2ab8f755, Result = 083bf6107, Time: 890 ns
✅ PASS: A = 902a3a20, B = d00b12a0, Result = 1c01f2780, Time: 895 ns
✅ PASS: A = 39600972, B = da3d8cb4, Result = 15f227cbe, Time: 900 ns
✅ PASS: A = 6e8af5dd, B = 86dcf00d, Result = 1e7ae05d0, Time: 905 ns
✅ PASS: A = 25b0994b, B = bccc4279, Result = 168e456d2, Time: 910 ns
✅ PASS: A = cf63da9e, B = fef064fd, Result = 1d07375a1, Time: 915 ns
✅ PASS: A = bde0d27b, B = 47e2738f, Result = 075fe5eec, Time: 920 ns
✅ PASS: A = 81c39a03, B = 71c129e3, Result = 010027020, Time: 925 ns
✅ PASS: A = 0e92431d, B = 58f93db1, Result = 1b599056c, Time: 930 ns
✅ PASS: A = 22119f44, B = ca9cbc95, Result = 15774e2af, Time: 935 ns
✅ PASS: A = f01d34e0, B = f6a178ed, Result = 1f97bbbf3, Time: 940 ns
✅ PASS: A = 297a1552, B = 7c1e5bf8, Result = 1ad5bb95a, Time: 945 ns
✅ PASS: A = 46dcb78d, B = a95fc452, Result = 19d7cf33b, Time: 950 ns
✅ PASS: A = 4219e784, B = 236afd46, Result = 01eaeea3e, Time: 955 ns
✅ PASS: A = c63a928c, B = 48487d90, Result = 07df214fc, Time: 960 ns
✅ PASS: A = 0beac117, B = 352d616a, Result = 1d6bd5fad, Time: 965 ns
✅ PASS: A = 427b5784, B = d55bbcaa, Result = 16d1f9ada, Time: 970 ns
✅ PASS: A = 3e6f0f7c, B = b0520260, Result = 18e1d0d1c, Time: 975 ns
✅ PASS: A = 5d4a4dba, B = c5a1608b, Result = 197a8ed2f, Time: 980 ns
✅ PASS: A = d31dfea6, B = 92831e25, Result = 0409ae081, Time: 985 ns
✅ PASS: A = 19058332, B = d10504a2, Result = 148007e90, Time: 990 ns
✅ PASS: A = a48f7c49, B = 8a64b014, Result = 01a2acc35, Time: 995 ns
✅ PASS: A = 9ec9c03d, B = 25f2034b, Result = 078d7bcf2, Time: 1000 ns

=== Testing MULTIPLICATION (A * B) ===
✅ PASS: A = ae68305c, B = 23907547, Result = 183aa91dc4bf7584, Time: 1005 ns
✅ PASS: A = 433e9786, B = 9caf7a39, Result = 29283c3a09bf98d6, Time: 1010 ns
✅ PASS: A = da058ab4, B = 6851e5d0, Result = 58d7ffd21c87b640, Time: 1015 ns
✅ PASS: A = 9622502c, B = 467c458c, Result = 2956435437afb410, Time: 1020 ns
✅ PASS: A = 03e9b707, B = b522406a, Result = 02c4c46e4e7588e6, Time: 1025 ns
✅ PASS: A = 0895f911, B = 746affe8, Result = 03e78b8a000ba668, Time: 1030 ns
✅ PASS: A = a5e79e4b, B = 39e48173, Result = 2584a86beb9be6b1, Time: 1035 ns
✅ PASS: A = 76295bec, B = 11fe0523, Result = 084dfe82d69b2d44, Time: 1040 ns
✅ PASS: A = 520eefa4, B = 64e165c9, Result = 2056155d0169dbc4, Time: 1045 ns
✅ PASS: A = 9ca70439, B = ef8372df, Result = 92905cb335890fa7, Time: 1050 ns
✅ PASS: A = ea5814d4, B = 33836567, Result = 2f27d40bee24054c, Time: 1055 ns
✅ PASS: A = 4ea0419d, B = 583125b0, Result = 1b162ecdbeb5ccf0, Time: 1060 ns
✅ PASS: A = 41103982, B = 24d2bf49, Result = 095bd8031d2c6412, Time: 1065 ns
✅ PASS: A = ecb91ad9, B = 1000b720, Result = 0ecc3b0379547a20, Time: 1070 ns
✅ PASS: A = 8e054c1c, B = 49b16f93, Result = 28e1f2437466d814, Time: 1075 ns
✅ PASS: A = 71b461e3, B = 954b822a, Result = 424f86a20dce553e, Time: 1080 ns
✅ PASS: A = e471f8c8, B = aed72e5d, Result = 9c057c2f581350a8, Time: 1085 ns
✅ PASS: A = 1d3f9d3a, B = 4226a984, Result = 078ed1585e345be8, Time: 1090 ns
✅ PASS: A = 95a9a82b, B = 1c8d7f39, Result = 10b14736d0e2c693, Time: 1095 ns
✅ PASS: A = 897f1c12, B = a97f0052, Result = 5b091fc2d9a4fdc4, Time: 1100 ns
✅ PASS: A = 2c848959, B = e82b96d0, Result = 285fb0f58e1cbe50, Time: 1105 ns
✅ PASS: A = b759ea6e, B = 4bf52997, Result = 3666ee8521dae4e2, Time: 1110 ns
✅ PASS: A = 6d8b87db, B = 535277a6, Result = 23a786f069c6e502, Time: 1115 ns
✅ PASS: A = 5d85d3bb, B = 80797c00, Result = 2eef4b6b65f19400, Time: 1120 ns
✅ PASS: A = 87e44c0f, B = b4e8d669, Result = 60081e300dcfbc27, Time: 1125 ns
✅ PASS: A = 8653620c, B = 2ca81959, Result = 176e88df3f70422c, Time: 1130 ns
✅ PASS: A = 62fd49c5, B = 67d735cf, Result = 28272035b2876f4b, Time: 1135 ns
✅ PASS: A = 4839e590, B = a8e4d851, Result = 2fa68f3ea8432290, Time: 1140 ns
✅ PASS: A = b4f9a469, B = 3b83cd77, Result = 2a12b5e35d6e81cf, Time: 1145 ns
✅ PASS: A = 2523654a, B = ec3758d8, Result = 2244a8de7b94e670, Time: 1150 ns
✅ PASS: A = 4ddd4d9b, B = e20e9ac4, Result = 44c1cfafd298a8ac, Time: 1155 ns
✅ PASS: A = 5c78b1b8, B = dbe6f2b7, Result = 4f6eac244596fa88, Time: 1160 ns
✅ PASS: A = c378ee86, B = 984d5a30, Result = 744adddc78d5d520, Time: 1165 ns
✅ PASS: A = 3bed5377, B = 5ad6c7b5, Result = 1543b67b76278423, Time: 1170 ns
✅ PASS: A = 6a15f5d4, B = 03878707, Result = 01766b6a9a0884cc, Time: 1175 ns
✅ PASS: A = 3b0b9776, B = 74a1ade9, Result = 1ae68b084c1d9866, Time: 1180 ns
✅ PASS: A = 45e28b8b, B = 00f25f01, Result = 00422a174111208b, Time: 1185 ns
✅ PASS: A = 6d808bdb, B = c0764280, Result = 5252fe969b466380, Time: 1190 ns
✅ PASS: A = 611d9fc2, B = e2ecdac5, Result = 5616015680af244a, Time: 1195 ns
✅ PASS: A = 9827fa30, B = d7b2e4af, Result = 8033e6d5e386c6d0, Time: 1200 ns
✅ PASS: A = b302da66, B = 57fbb9af, Result = 3d85fddc3ac901ba, Time: 1205 ns
✅ PASS: A = f4d86ee9, B = 7c41aff8, Result = 76d7a8fa2aa5b8b8, Time: 1210 ns
✅ PASS: A = 8376ac06, B = f78576ef, Result = 7f1c09b498335d9a, Time: 1215 ns
✅ PASS: A = 70ef37e1, B = cab47c95, Result = 596c61406e8081f5, Time: 1220 ns
✅ PASS: A = f7723eee, B = 304e4d60, Result = 2eb11b65f4492f40, Time: 1225 ns
✅ PASS: A = f29c5ee5, B = 9420ea28, Result = 8c61985117cc25c8, Time: 1230 ns
✅ PASS: A = 322f7d64, B = 14b43729, Result = 040f0a0037db9104, Time: 1235 ns
✅ PASS: A = f0eeaee1, B = bbbc5277, Result = b0af96a33b335c97, Time: 1240 ns
✅ PASS: A = 3715156e, B = 40aaf581, Result = 0dea0e2eaa2e126e, Time: 1245 ns
✅ PASS: A = 6a9fb9d5, B = 3437d568, Result = 15bfb2f26744b788, Time: 1250 ns
✅ PASS: A = 786271f0, B = d57800aa, Result = 6462574209dfa960, Time: 1255 ns
✅ PASS: A = 079fc30f, B = f8dc48f1, Result = 0769546e4526d91f, Time: 1260 ns
✅ PASS: A = be9bbc7d, B = 472e958e, Result = 34ffe09ce88d4e56, Time: 1265 ns
✅ PASS: A = f161dce2, B = 1e664d3c, Result = 1ca9edb3806bbef8, Time: 1270 ns
✅ PASS: A = d4b5e6a9, B = 77ebb1ef, Result = 63a4650ba67030c7, Time: 1275 ns
✅ PASS: A = ade7d05b, B = d7a23caf, Result = 927be5e77ce2c235, Time: 1280 ns
✅ PASS: A = 25029b4a, B = 5cd20db9, Result = 0d6b4deddb78fa7a, Time: 1285 ns
✅ PASS: A = 098e2d13, B = 09c83513, Result = 005d78a406ba4769, Time: 1290 ns
✅ PASS: A = 32dc4165, B = 28c62751, Result = 0819c86201c513f5, Time: 1295 ns
✅ PASS: A = db983ab7, B = cc981099, Result = af7fbf69724e875f, Time: 1300 ns
✅ PASS: A = 9d12083a, B = b8ea3a71, Result = 7174ac409fd6c59a, Time: 1305 ns
✅ PASS: A = 317c0762, B = f2356ae4, Result = 2ed1925198cf2748, Time: 1310 ns
✅ PASS: A = 1513dd2a, B = beda447d, Result = 0fb6b6b313362582, Time: 1315 ns
✅ PASS: A = 2cee5f59, B = 72c3a3e5, Result = 14247ccc3abbf59d, Time: 1320 ns
✅ PASS: A = 76de6bed, B = e4a800c9, Result = 6a2c1a733c2abd15, Time: 1325 ns
✅ PASS: A = a0aecc41, B = 57c1d1af, Result = 37150ecea03fb16f, Time: 1330 ns
✅ PASS: A = eda71cdb, B = e696e8cd, Result = d6103bf56b4a935f, Time: 1335 ns
✅ PASS: A = 38139f70, B = 8326d406, Result = 1cba8bf18b1e7ca0, Time: 1340 ns
✅ PASS: A = d14820a2, B = 5e983dbd, Result = 4d54f1478e36b19a, Time: 1345 ns
✅ PASS: A = b555de6a, B = 6e3d47dc, Result = 4e164dee31bc8918, Time: 1350 ns
✅ PASS: A = a86c5e50, B = bd86f47b, Result = 7cb0cb32a3d59070, Time: 1355 ns
✅ PASS: A = 929d5825, B = bc3f8478, Result = 6bcfed51b84f6558, Time: 1360 ns
✅ PASS: A = 7b7b89f6, B = ae23ce5c, Result = 53ff3d32da0b8868, Time: 1365 ns
✅ PASS: A = 11cc9b23, B = 3cb3ab79, Result = 04387258c2ceb48b, Time: 1370 ns
✅ PASS: A = 644605c8, B = ddd146bb, Result = 56e26bdcc502e918, Time: 1375 ns
✅ PASS: A = 870cee0e, B = b9879473, Result = 61dfde29cbd1084a, Time: 1380 ns
✅ PASS: A = 0671030c, B = e70f98ce, Result = 05d05e374a7393a8, Time: 1385 ns
✅ PASS: A = 6a1a61d4, B = acecdc59, Result = 47abe5602eae32b4, Time: 1390 ns
✅ PASS: A = 5ca26fb9, B = d9b8c0b3, Result = 4ec88b2eb756de5b, Time: 1395 ns
✅ PASS: A = 7a4fbff4, B = baf4e275, Result = 5952f1ac8a782284, Time: 1400 ns
✅ PASS: A = 066cf10c, B = 9cfc7a39, Result = 03f0b931f0f163ac, Time: 1405 ns
✅ PASS: A = 01729302, B = 8aecbe15, Result = 00c919f1c1598b2a, Time: 1410 ns
✅ PASS: A = 02fbf905, B = 271c434e, Result = 0074b747da7e2e86, Time: 1415 ns
✅ PASS: A = 013f2902, B = 5c7951b8, Result = 007349fcfb511b70, Time: 1420 ns
✅ PASS: A = 847fb208, B = 46e7538d, Result = 24b2a5263645a668, Time: 1425 ns
✅ PASS: A = d7b48eaf, B = 747331e8, Result = 621ee0d06f8dcd98, Time: 1430 ns
✅ PASS: A = 48590990, B = 7af6abf5, Result = 22c024b686f956d0, Time: 1435 ns
✅ PASS: A = a620904c, B = 3d82bd7b, Result = 27ea99e13ec57084, Time: 1440 ns
✅ PASS: A = a005a640, B = 12a90325, Result = 0baa0b627203c740, Time: 1445 ns
✅ PASS: A = 86ebb60d, B = b87c1070, Result = 613acdaf48cc75b0, Time: 1450 ns
✅ PASS: A = 16cbf92d, B = 94ded829, Result = 0d41c42fd9eee035, Time: 1455 ns
✅ PASS: A = 5e2551bc, B = 987b0830, Result = 38136778b6e13340, Time: 1460 ns
✅ PASS: A = 60272dc0, B = 28766950, Result = 0f3298c334820c00, Time: 1465 ns
✅ PASS: A = d0cf6aa1, B = 26bf3f4d, Result = 1f9ac8364dbfb16d, Time: 1470 ns
✅ PASS: A = faf32ef5, B = 7a87aff5, Result = 781ce71aed086b79, Time: 1475 ns
✅ PASS: A = aeeacc5d, B = ca481294, Result = 8a3683fc7e44afc4, Time: 1480 ns
✅ PASS: A = b558a66a, B = 5e6065bc, Result = 42dad66a7a8207d8, Time: 1485 ns
✅ PASS: A = dc4308b8, B = cf309c9e, Result = b244075f352f8190, Time: 1490 ns
✅ PASS: A = fd7906fa, B = 23400b46, Result = 22e6f55f6ee4a65c, Time: 1495 ns
✅ PASS: A = 83fa6407, B = c9cbbc93, Result = 6808a14e7ac99405, Time: 1500 ns

=== Testing AND (A & B) ===
✅ PASS: A = aada7455, B = 5bd3dbb7, Result = 0ad25015, Time: 1505 ns
✅ PASS: A = 22d5f145, B = b1800a63, Result = 20800041, Time: 1510 ns
✅ PASS: A = ac93e059, B = 9372ce26, Result = 8012c000, Time: 1515 ns
✅ PASS: A = b4497668, B = 8f63e41e, Result = 84416408, Time: 1520 ns
✅ PASS: A = c838f490, B = 2d19a55a, Result = 0818a410, Time: 1525 ns
✅ PASS: A = 0e43851c, B = 5c9967b9, Result = 0c010518, Time: 1530 ns
✅ PASS: A = 55861fab, B = 6826d9d0, Result = 40061980, Time: 1535 ns
✅ PASS: A = 37b9656f, B = 6c6a6dd8, Result = 24286548, Time: 1540 ns
✅ PASS: A = a2cc8845, B = 46d6a78d, Result = 02c48005, Time: 1545 ns
✅ PASS: A = 45f3238b, B = 7e2491fc, Result = 44200188, Time: 1550 ns
✅ PASS: A = 6e1e1fdc, B = d27f0aa4, Result = 421e0a84, Time: 1555 ns
✅ PASS: A = 0c978d19, B = 52b533a5, Result = 00950101, Time: 1560 ns
✅ PASS: A = 9f398e3e, B = f98bc0f3, Result = 99098032, Time: 1565 ns
✅ PASS: A = ac782c58, B = 62056bc4, Result = 20002840, Time: 1570 ns
✅ PASS: A = 2e36435c, B = 033a4506, Result = 02324104, Time: 1575 ns
✅ PASS: A = cd1d509a, B = 0c161918, Result = 0c141018, Time: 1580 ns
✅ PASS: A = e2f066c5, B = 5515d1aa, Result = 40104080, Time: 1585 ns
✅ PASS: A = 0d12031a, B = 61dbd5c3, Result = 01120102, Time: 1590 ns
