alu/alu_tb.txt
VCD info: dumpfile alu_wave.vcd opened for output.

=== Testing ADDITION (A + B) ===
✅ PASS: A = 12153524, B = c0895e81, Result = 0d29e93a5
✅ PASS: A = 8484d609, B = b1f05663, Result = 136752c6c
✅ PASS: A = 06b97b0d, B = 46df998d, Result = 04d99149a
✅ PASS: A = b2c28465, B = 89375212, Result = 13bf9d677
✅ PASS: A = 00f3e301, B = 06d7cd0d, Result = 007cbb00e
✅ PASS: A = 3b23f176, B = 1e8dcd3d, Result = 059b1beb3
✅ PASS: A = 76d457ed, B = 462df78c, Result = 0bd024f79
✅ PASS: A = 7cfde9f9, B = e33724c6, Result = 160350ebf
✅ PASS: A = e2f784c5, B = d513d2aa, Result = 1b80b576f
✅ PASS: A = 72aff7e5, B = bbd27277, Result = 12e826a5c
✅ PASS: A = 8932d612, B = 47ecdb8f, Result = 0d11fb1a1
✅ PASS: A = 793069f2, B = e77696ce, Result = 160a700c0
✅ PASS: A = f4007ae8, B = e2ca4ec5, Result = 1d6cac9ad
✅ PASS: A = 2e58495c, B = de8e28bd, Result = 10ce67219
✅ PASS: A = 96ab582d, B = b2a72665, Result = 149527e92
✅ PASS: A = b1ef6263, B = 0573870a, Result = 0b762e96d
✅ PASS: A = c03b2280, B = 10642120, Result = 0d09f43a0
✅ PASS: A = 557845aa, B = cecccc9d, Result = 124451247
✅ PASS: A = cb203e96, B = 8983b813, Result = 154a3f6a9
✅ PASS: A = 86bc380d, B = a9a7d653, Result = 130640e60
✅ PASS: A = 359fdd6b, B = eaa62ad5, Result = 120460840
✅ PASS: A = 81174a02, B = d7563eae, Result = 1586d88b0
✅ PASS: A = 0effe91d, B = e7c572cf, Result = 0f6c55bec
✅ PASS: A = 11844923, B = 0509650a, Result = 0168dae2d
✅ PASS: A = e5730aca, B = 9e314c3c, Result = 183a45706
✅ PASS: A = 7968bdf2, B = 452e618a, Result = 0be971f7c
✅ PASS: A = 20c4b341, B = ec4b34d8, Result = 10d0fe819
✅ PASS: A = 3c20f378, B = c48a1289, Result = 100ab0601
✅ PASS: A = 75c50deb, B = 5b0265b6, Result = 0d0c773a1
✅ PASS: A = 634bf9c6, B = 571513ae, Result = 0ba610d74
✅ PASS: A = de7502bc, B = 150fdd2a, Result = 0f384dfe6
✅ PASS: A = 85d79a0b, B = b897be71, Result = 13e6f587c
✅ PASS: A = 42f24185, B = 27f2554f, Result = 06ae496d4
✅ PASS: A = 9dcc603b, B = 1d06333a, Result = 0bad29375
✅ PASS: A = bf23327e, B = 0aaa4b15, Result = 0c9cd7d93
✅ PASS: A = 78d99bf1, B = 6c9c4bd9, Result = 0e575e7ca
✅ PASS: A = 31230762, B = 2635fb4c, Result = 0575902ae
✅ PASS: A = 4fa1559f, B = 47b9a18f, Result = 0975af72e
✅ PASS: A = 7c6da9f8, B = dbcd60b7, Result = 1583b0aaf
✅ PASS: A = cfc4569f, B = ae7d945c, Result = 17e41eafb
✅ PASS: A = adcbc05b, B = 44de3789, Result = 0f2a9f7e4
✅ PASS: A = a4ae3249, B = e8233ed0, Result = 18cd17119
✅ PASS: A = ebfec0d7, B = a8c7fc51, Result = 194c6bd28
✅ PASS: A = 4b212f96, B = 061d7f0c, Result = 0513eaea2
✅ PASS: A = e12ccec2, B = 6457edc8, Result = 14584bc8a
✅ PASS: A = bb825a77, B = 1ef2ed3d, Result = 0da7547b4
✅ PASS: A = 090cdb12, B = bf05007e, Result = 0c811db90
✅ PASS: A = 36e5816d, B = 1cd9e739, Result = 053bf68a6
✅ PASS: A = 0fd28f1f, B = e9ebf6d3, Result = 0f9be85f2
✅ PASS: A = 42d92f85, B = bc148878, Result = 0feedb7fd
✅ PASS: A = 2dda595b, B = 248b4b49, Result = 05265a4a4
✅ PASS: A = 9ff2ae3f, B = 150caf2a, Result = 0b4ff5d69
✅ PASS: A = 2c156358, B = c33f3886, Result = 0ef549bde
✅ PASS: A = c71a0c8e, B = ce2ff29c, Result = 19549ff2a
✅ PASS: A = 7d3599fa, B = 937dbc26, Result = 110b35620
✅ PASS: A = 39961773, B = d18bb4a3, Result = 10b21cc16
✅ PASS: A = 9799a82f, B = d9d292b3, Result = 1716c3ae2
✅ PASS: A = afd8565f, B = 22290d44, Result = 0d20163a3
✅ PASS: A = 7bf8fdf7, B = e59b36cb, Result = 1619434c2
✅ PASS: A = f3091ae6, B = 2d28db5a, Result = 12031f640
✅ PASS: A = 14cfc129, B = f682e2ed, Result = 10b52a416
✅ PASS: A = ed536cda, B = b29fb665, Result = 19ff3233f
✅ PASS: A = da8ae2b5, B = efbe94df, Result = 1ca497794
✅ PASS: A = 3cf11979, B = 2231ff44, Result = 05f2318bd
✅ PASS: A = e8740cd0, B = 15090b2a, Result = 0fd7d17fa
✅ PASS: A = 55f6adab, B = 076fcf0e, Result = 05d667cb9
✅ PASS: A = 6e5daddc, B = cd5ebc9a, Result = 13bbc6a76
✅ PASS: A = fedf72fd, B = e1f102c3, Result = 1e0d075c0
✅ PASS: A = 2b0eed56, B = 2779e94e, Result = 05288d6a4
✅ PASS: A = b3d97667, B = 8531340a, Result = 1390aaa71
✅ PASS: A = 5b6fb9b6, B = 9c0e8a38, Result = 0f77e43ee
✅ PASS: A = 3cd18779, B = dc2bc4b8, Result = 118fd4c31
✅ PASS: A = 4a74bf94, B = 49c65d93, Result = 0943b1d27
✅ PASS: A = 823f2c04, B = acb7ca59, Result = 12ef6f65d
✅ PASS: A = 6dcb69db, B = a6fcde4d, Result = 114c84828
✅ PASS: A = 6cb0b7d9, B = b6a4266d, Result = 12354de46
✅ PASS: A = bb45e276, B = 653b49ca, Result = 120812c40
✅ PASS: A = 5b172db6, B = 4a937195, Result = 0a5aa9f4b
✅ PASS: A = a3071a46, B = 02749b04, Result = 0a57bb54a
✅ PASS: A = 7bd261f7, B = 34980769, Result = 0b06a6960
✅ PASS: A = da6ebab4, B = 44018d88, Result = 11e70483c
✅ PASS: A = 147cd928, B = 9690042d, Result = 0ab0cdd55
✅ PASS: A = e3c530c7, B = 975c9c2e, Result = 17b21ccf5
✅ PASS: A = 8477e408, B = 0e41451c, Result = 092b92924
✅ PASS: A = fea7a6fd, B = 149e0729, Result = 11345ae26
✅ PASS: A = 8e37901c, B = 43356786, Result = 0d16cf7a2
✅ PASS: A = ed3408da, B = 9eb7c63d, Result = 18bebcf17
✅ PASS: A = 334ea766, B = b855c470, Result = 0eba46bd6
✅ PASS: A = b9f50473, B = 5d7199ba, Result = 117669e2d
✅ PASS: A = 2f3ab35e, B = 7d4779fa, Result = 0ac822d58
✅ PASS: A = 6a8e05d5, B = 8d24f61a, Result = 0f7b2fbef
✅ PASS: A = dcf000b9, B = 1b876137, Result = 0f87761f0
✅ PASS: A = 4b273796, B = 603921c0, Result = 0ab605956
✅ PASS: A = 13259f26, B = db461ab6, Result = 0ee6bb9dc
✅ PASS: A = 3e99837d, B = 6e5f0fdc, Result = 0acf89359
✅ PASS: A = 43615786, B = 3c03ff78, Result = 07f6556fe
✅ PASS: A = 3f5a9b7e, B = ed8d80db, Result = 12ce81c59
✅ PASS: A = e7c3b6cf, B = 3ced2b79, Result = 124b0e248
✅ PASS: A = fd28e4fa, B = b0bcee61, Result = 1ade5d35b
✅ PASS: A = 0b940917, B = d0f578a1, Result = 0dc8981b8

=== Testing SUBTRACTION (A - B) ===
✅ PASS: A = 43779186, B = a8639650, Result = 19b13fb36
✅ PASS: A = 7a8c59f5, B = 9ab48835, Result = 1dfd7d1c0
✅ PASS: A = 949a8a29, B = 60b175c1, Result = 033e91468
✅ PASS: A = e2e574c5, B = cc01b498, Result = 016e3c02d
✅ PASS: A = 25b27b4b, B = b98c4273, Result = 16c2638d8
✅ PASS: A = f622e6ec, B = c550168a, Result = 030d2d062
✅ PASS: A = 2758d14e, B = d44b80a8, Result = 1530d50a6
✅ PASS: A = 549efda9, B = d0ca8ca1, Result = 183d47108
✅ PASS: A = 070bb90e, B = f33466e6, Result = 113d75228
✅ PASS: A = cfd6c09f, B = 152fb52a, Result = 0baa70b75
✅ PASS: A = 155a1d2a, B = c6b5f48d, Result = 14ea4289d
✅ PASS: A = 4f75ff9e, B = 9c6de638, Result = 1b3081966
✅ PASS: A = bccfa879, B = 6464e3c8, Result = 0586ac4b1
✅ PASS: A = 652345ca, B = 09ff4113, Result = 05b2404b7
✅ PASS: A = 35a0c96b, B = e3b7aec7, Result = 151e91aa4
✅ PASS: A = 5b0bddb6, B = 5d059dba, Result = 1fe063ffc
✅ PASS: A = 6216abc4, B = 5c8295b9, Result = 00594160b
✅ PASS: A = 492fd392, B = da269ab4, Result = 16f0938de
✅ PASS: A = 3fbb3b7f, B = c3339086, Result = 17c87aaf9
✅ PASS: A = 7d6df5fa, B = f92794f2, Result = 184466108
✅ PASS: A = 19452132, B = dece5ebd, Result = 13a76c275
✅ PASS: A = 424fcd84, B = f249a4e4, Result = 1500628a0
✅ PASS: A = 6543cfca, B = 54a879a9, Result = 0109b5621
✅ PASS: A = d095a8a1, B = 4765a98e, Result = 0892fff13
✅ PASS: A = fd8b6afb, B = 85e51e0b, Result = 077a64cf0
✅ PASS: A = f78290ef, B = 64c83dc9, Result = 092ba5326
✅ PASS: A = 1b60e536, B = bab14875, Result = 160af9cc1
✅ PASS: A = c7e8568f, B = 35cdbf6b, Result = 0921a9724
✅ PASS: A = 4465e788, B = d73fb4ae, Result = 16d2632da
✅ PASS: A = 4df3819b, B = 493e4592, Result = 004b53c09
✅ PASS: A = 1444df28, B = 9684e02d, Result = 17dbffefb
✅ PASS: A = 25b75f4b, B = e169b0c2, Result = 1444dae89
✅ PASS: A = 8f1cf61e, B = 06b3050d, Result = 08869f111
✅ PASS: A = 7679fdec, B = 0c039d18, Result = 06a7660d4
✅ PASS: A = 68ae1bd1, B = c3761c86, Result = 1a537ff4b
✅ PASS: A = a0c02441, B = 9dbf643b, Result = 00300c006
✅ PASS: A = 6c44f9d8, B = 29efe953, Result = 042551085
✅ PASS: A = ab196256, B = adac225b, Result = 1fd6d3ffb
✅ PASS: A = f166fae2, B = 8273e204, Result = 06ef318de
✅ PASS: A = 39ac0373, B = ec50b4d8, Result = 14d5b4e9b
✅ PASS: A = 093e4d12, B = dc0344b8, Result = 12d3b085a
✅ PASS: A = 9c811239, B = f287b6e5, Result = 1a9f95b54
✅ PASS: A = d0c5dca1, B = 15890f2b, Result = 0bb3ccd76
✅ PASS: A = 40905d81, B = 641b85c8, Result = 1dc74d7b9
✅ PASS: A = 13b55527, B = 50d5f9a1, Result = 1c2df5b86
✅ PASS: A = 8f8c6e1f, B = 82223a04, Result = 00d6a341b
✅ PASS: A = 2c2d2358, B = cb5c8096, Result = 160d0a2c2
✅ PASS: A = 0a6e9314, B = 8919b412, Result = 18154df02
✅ PASS: A = cb227096, B = d8ace2b1, Result = 1f2758de5
✅ PASS: A = 2ac2d555, B = f6c38eed, Result = 133ff4668
✅ PASS: A = 158b2b2b, B = 7ab11bf5, Result = 19ada0f36
✅ PASS: A = 56b403ad, B = 93c12227, Result = 1c2f2e186
✅ PASS: A = 4249ff84, B = d3a8e4a7, Result = 16ea11add
✅ PASS: A = f3d7a6e7, B = dcef90b9, Result = 016e8162e
✅ PASS: A = a4da5649, B = 6de5bbdb, Result = 036f49a6e
✅ PASS: A = 64ba0fc9, B = 2883b151, Result = 03c365e78
✅ PASS: A = d0bc5ea1, B = 1546dd2a, Result = 0bb758177
✅ PASS: A = 7d2a45fa, B = a2e62045, Result = 1da4425b5
✅ PASS: A = 41a10583, B = be75427c, Result = 1832bc307
✅ PASS: A = b9461472, B = ff4f3cfe, Result = 1b9f6d774
✅ PASS: A = b455f268, B = b7dfaa6f, Result = 1fc7647f9
✅ PASS: A = 43460d86, B = 782321f0, Result = 1cb22eb96
✅ PASS: A = 1c719738, B = 20769140, Result = 1fbfb05f8
✅ PASS: A = 94097628, B = 7b0da9f6, Result = 018fbcc32
✅ PASS: A = e2bf1ac5, B = 602831c0, Result = 08296e905
✅ PASS: A = 3a625f74, B = 1cde7139, Result = 01d83ee3b
✅ PASS: A = d86a6ab0, B = 1e1c873c, Result = 0ba4de374
✅ PASS: A = 1521932a, B = 3124d362, Result = 1e3fcbfc8
✅ PASS: A = 0aec3515, B = f0b14ee1, Result = 11a3ae634
✅ PASS: A = 0be29d17, B = a18bee43, Result = 16a56aed4
✅ PASS: A = 64b5e3c9, B = c3360486, Result = 1a17fdf43
✅ PASS: A = 1297cb25, B = 60f69dc1, Result = 1b1a12d64
✅ PASS: A = c69da28d, B = ad67e25a, Result = 01935c033
✅ PASS: A = 03d62707, B = 165b7b2c, Result = 1ed7aabdb
✅ PASS: A = 060a5d0c, B = b8ade671, Result = 14d5c769b
✅ PASS: A = 9de17c3b, B = 5b60e5b6, Result = 042809685
✅ PASS: A = fbdfc2f7, B = cf14ce9e, Result = 02ccaf459
✅ PASS: A = ae78585c, B = 2ab8f755, Result = 083bf6107
✅ PASS: A = 902a3a20, B = d00b12a0, Result = 1c01f2780
✅ PASS: A = 39600972, B = da3d8cb4, Result = 15f227cbe
✅ PASS: A = 6e8af5dd, B = 86dcf00d, Result = 1e7ae05d0
✅ PASS: A = 25b0994b, B = bccc4279, Result = 168e456d2
✅ PASS: A = cf63da9e, B = fef064fd, Result = 1d07375a1
✅ PASS: A = bde0d27b, B = 47e2738f, Result = 075fe5eec
✅ PASS: A = 81c39a03, B = 71c129e3, Result = 010027020
✅ PASS: A = 0e92431d, B = 58f93db1, Result = 1b599056c
✅ PASS: A = 22119f44, B = ca9cbc95, Result = 15774e2af
✅ PASS: A = f01d34e0, B = f6a178ed, Result = 1f97bbbf3
✅ PASS: A = 297a1552, B = 7c1e5bf8, Result = 1ad5bb95a
✅ PASS: A = 46dcb78d, B = a95fc452, Result = 19d7cf33b
✅ PASS: A = 4219e784, B = 236afd46, Result = 01eaeea3e
✅ PASS: A = c63a928c, B = 48487d90, Result = 07df214fc
✅ PASS: A = 0beac117, B = 352d616a, Result = 1d6bd5fad
✅ PASS: A = 427b5784, B = d55bbcaa, Result = 16d1f9ada
✅ PASS: A = 3e6f0f7c, B = b0520260, Result = 18e1d0d1c
✅ PASS: A = 5d4a4dba, B = c5a1608b, Result = 197a8ed2f
✅ PASS: A = d31dfea6, B = 92831e25, Result = 0409ae081
✅ PASS: A = 19058332, B = d10504a2, Result = 148007e90
✅ PASS: A = a48f7c49, B = 8a64b014, Result = 01a2acc35
✅ PASS: A = 9ec9c03d, B = 25f2034b, Result = 078d7bcf2

=== Testing MULTIPLICATION (A * B) ===
✅ PASS: A = ae68305c, B = 23907547, Result = 183aa91dc4bf7584
✅ PASS: A = 433e9786, B = 9caf7a39, Result = 29283c3a09bf98d6
✅ PASS: A = da058ab4, B = 6851e5d0, Result = 58d7ffd21c87b640
✅ PASS: A = 9622502c, B = 467c458c, Result = 2956435437afb410
✅ PASS: A = 03e9b707, B = b522406a, Result = 02c4c46e4e7588e6
✅ PASS: A = 0895f911, B = 746affe8, Result = 03e78b8a000ba668
✅ PASS: A = a5e79e4b, B = 39e48173, Result = 2584a86beb9be6b1
✅ PASS: A = 76295bec, B = 11fe0523, Result = 084dfe82d69b2d44
✅ PASS: A = 520eefa4, B = 64e165c9, Result = 2056155d0169dbc4
✅ PASS: A = 9ca70439, B = ef8372df, Result = 92905cb335890fa7
✅ PASS: A = ea5814d4, B = 33836567, Result = 2f27d40bee24054c
✅ PASS: A = 4ea0419d, B = 583125b0, Result = 1b162ecdbeb5ccf0
✅ PASS: A = 41103982, B = 24d2bf49, Result = 095bd8031d2c6412
✅ PASS: A = ecb91ad9, B = 1000b720, Result = 0ecc3b0379547a20
✅ PASS: A = 8e054c1c, B = 49b16f93, Result = 28e1f2437466d814
✅ PASS: A = 71b461e3, B = 954b822a, Result = 424f86a20dce553e
✅ PASS: A = e471f8c8, B = aed72e5d, Result = 9c057c2f581350a8
✅ PASS: A = 1d3f9d3a, B = 4226a984, Result = 078ed1585e345be8
✅ PASS: A = 95a9a82b, B = 1c8d7f39, Result = 10b14736d0e2c693
✅ PASS: A = 897f1c12, B = a97f0052, Result = 5b091fc2d9a4fdc4
✅ PASS: A = 2c848959, B = e82b96d0, Result = 285fb0f58e1cbe50
✅ PASS: A = b759ea6e, B = 4bf52997, Result = 3666ee8521dae4e2
✅ PASS: A = 6d8b87db, B = 535277a6, Result = 23a786f069c6e502
✅ PASS: A = 5d85d3bb, B = 80797c00, Result = 2eef4b6b65f19400
✅ PASS: A = 87e44c0f, B = b4e8d669, Result = 60081e300dcfbc27
✅ PASS: A = 8653620c, B = 2ca81959, Result = 176e88df3f70422c
✅ PASS: A = 62fd49c5, B = 67d735cf, Result = 28272035b2876f4b
✅ PASS: A = 4839e590, B = a8e4d851, Result = 2fa68f3ea8432290
✅ PASS: A = b4f9a469, B = 3b83cd77, Result = 2a12b5e35d6e81cf
✅ PASS: A = 2523654a, B = ec3758d8, Result = 2244a8de7b94e670
✅ PASS: A = 4ddd4d9b, B = e20e9ac4, Result = 44c1cfafd298a8ac
✅ PASS: A = 5c78b1b8, B = dbe6f2b7, Result = 4f6eac244596fa88
✅ PASS: A = c378ee86, B = 984d5a30, Result = 744adddc78d5d520
✅ PASS: A = 3bed5377, B = 5ad6c7b5, Result = 1543b67b76278423
✅ PASS: A = 6a15f5d4, B = 03878707, Result = 01766b6a9a0884cc
✅ PASS: A = 3b0b9776, B = 74a1ade9, Result = 1ae68b084c1d9866
✅ PASS: A = 45e28b8b, B = 00f25f01, Result = 00422a174111208b
✅ PASS: A = 6d808bdb, B = c0764280, Result = 5252fe969b466380
✅ PASS: A = 611d9fc2, B = e2ecdac5, Result = 5616015680af244a
✅ PASS: A = 9827fa30, B = d7b2e4af, Result = 8033e6d5e386c6d0
✅ PASS: A = b302da66, B = 57fbb9af, Result = 3d85fddc3ac901ba
✅ PASS: A = f4d86ee9, B = 7c41aff8, Result = 76d7a8fa2aa5b8b8
✅ PASS: A = 8376ac06, B = f78576ef, Result = 7f1c09b498335d9a
✅ PASS: A = 70ef37e1, B = cab47c95, Result = 596c61406e8081f5
✅ PASS: A = f7723eee, B = 304e4d60, Result = 2eb11b65f4492f40
✅ PASS: A = f29c5ee5, B = 9420ea28, Result = 8c61985117cc25c8
✅ PASS: A = 322f7d64, B = 14b43729, Result = 040f0a0037db9104
✅ PASS: A = f0eeaee1, B = bbbc5277, Result = b0af96a33b335c97
✅ PASS: A = 3715156e, B = 40aaf581, Result = 0dea0e2eaa2e126e
✅ PASS: A = 6a9fb9d5, B = 3437d568, Result = 15bfb2f26744b788
✅ PASS: A = 786271f0, B = d57800aa, Result = 6462574209dfa960
✅ PASS: A = 079fc30f, B = f8dc48f1, Result = 0769546e4526d91f
✅ PASS: A = be9bbc7d, B = 472e958e, Result = 34ffe09ce88d4e56
✅ PASS: A = f161dce2, B = 1e664d3c, Result = 1ca9edb3806bbef8
✅ PASS: A = d4b5e6a9, B = 77ebb1ef, Result = 63a4650ba67030c7
✅ PASS: A = ade7d05b, B = d7a23caf, Result = 927be5e77ce2c235
✅ PASS: A = 25029b4a, B = 5cd20db9, Result = 0d6b4deddb78fa7a
✅ PASS: A = 098e2d13, B = 09c83513, Result = 005d78a406ba4769
✅ PASS: A = 32dc4165, B = 28c62751, Result = 0819c86201c513f5
✅ PASS: A = db983ab7, B = cc981099, Result = af7fbf69724e875f
✅ PASS: A = 9d12083a, B = b8ea3a71, Result = 7174ac409fd6c59a
✅ PASS: A = 317c0762, B = f2356ae4, Result = 2ed1925198cf2748
✅ PASS: A = 1513dd2a, B = beda447d, Result = 0fb6b6b313362582
✅ PASS: A = 2cee5f59, B = 72c3a3e5, Result = 14247ccc3abbf59d
✅ PASS: A = 76de6bed, B = e4a800c9, Result = 6a2c1a733c2abd15
✅ PASS: A = a0aecc41, B = 57c1d1af, Result = 37150ecea03fb16f
✅ PASS: A = eda71cdb, B = e696e8cd, Result = d6103bf56b4a935f
✅ PASS: A = 38139f70, B = 8326d406, Result = 1cba8bf18b1e7ca0
✅ PASS: A = d14820a2, B = 5e983dbd, Result = 4d54f1478e36b19a
✅ PASS: A = b555de6a, B = 6e3d47dc, Result = 4e164dee31bc8918
✅ PASS: A = a86c5e50, B = bd86f47b, Result = 7cb0cb32a3d59070
✅ PASS: A = 929d5825, B = bc3f8478, Result = 6bcfed51b84f6558
✅ PASS: A = 7b7b89f6, B = ae23ce5c, Result = 53ff3d32da0b8868
✅ PASS: A = 11cc9b23, B = 3cb3ab79, Result = 04387258c2ceb48b
✅ PASS: A = 644605c8, B = ddd146bb, Result = 56e26bdcc502e918
✅ PASS: A = 870cee0e, B = b9879473, Result = 61dfde29cbd1084a
✅ PASS: A = 0671030c, B = e70f98ce, Result = 05d05e374a7393a8
✅ PASS: A = 6a1a61d4, B = acecdc59, Result = 47abe5602eae32b4
✅ PASS: A = 5ca26fb9, B = d9b8c0b3, Result = 4ec88b2eb756de5b
✅ PASS: A = 7a4fbff4, B = baf4e275, Result = 5952f1ac8a782284
✅ PASS: A = 066cf10c, B = 9cfc7a39, Result = 03f0b931f0f163ac
✅ PASS: A = 01729302, B = 8aecbe15, Result = 00c919f1c1598b2a
✅ PASS: A = 02fbf905, B = 271c434e, Result = 0074b747da7e2e86
✅ PASS: A = 013f2902, B = 5c7951b8, Result = 007349fcfb511b70
✅ PASS: A = 847fb208, B = 46e7538d, Result = 24b2a5263645a668
✅ PASS: A = d7b48eaf, B = 747331e8, Result = 621ee0d06f8dcd98
✅ PASS: A = 48590990, B = 7af6abf5, Result = 22c024b686f956d0
✅ PASS: A = a620904c, B = 3d82bd7b, Result = 27ea99e13ec57084
✅ PASS: A = a005a640, B = 12a90325, Result = 0baa0b627203c740
✅ PASS: A = 86ebb60d, B = b87c1070, Result = 613acdaf48cc75b0
✅ PASS: A = 16cbf92d, B = 94ded829, Result = 0d41c42fd9eee035
✅ PASS: A = 5e2551bc, B = 987b0830, Result = 38136778b6e13340
✅ PASS: A = 60272dc0, B = 28766950, Result = 0f3298c334820c00
✅ PASS: A = d0cf6aa1, B = 26bf3f4d, Result = 1f9ac8364dbfb16d
✅ PASS: A = faf32ef5, B = 7a87aff5, Result = 781ce71aed086b79
✅ PASS: A = aeeacc5d, B = ca481294, Result = 8a3683fc7e44afc4
✅ PASS: A = b558a66a, B = 5e6065bc, Result = 42dad66a7a8207d8
✅ PASS: A = dc4308b8, B = cf309c9e, Result = b244075f352f8190
✅ PASS: A = fd7906fa, B = 23400b46, Result = 22e6f55f6ee4a65c
✅ PASS: A = 83fa6407, B = c9cbbc93, Result = 6808a14e7ac99405

=== Testing AND (A & B) ===
✅ PASS: A = aada7455, B = 5bd3dbb7, Result = 0ad25015
✅ PASS: A = 22d5f145, B = b1800a63, Result = 20800041
✅ PASS: A = ac93e059, B = 9372ce26, Result = 8012c000
✅ PASS: A = b4497668, B = 8f63e41e, Result = 84416408
✅ PASS: A = c838f490, B = 2d19a55a, Result = 0818a410
✅ PASS: A = 0e43851c, B = 5c9967b9, Result = 0c010518
✅ PASS: A = 55861fab, B = 6826d9d0, Result = 40061980
✅ PASS: A = 37b9656f, B = 6c6a6dd8, Result = 24286548
✅ PASS: A = a2cc8845, B = 46d6a78d, Result = 02c48005
✅ PASS: A = 45f3238b, B = 7e2491fc, Result = 44200188
✅ PASS: A = 6e1e1fdc, B = d27f0aa4, Result = 421e0a84
✅ PASS: A = 0c978d19, B = 52b533a5, Result = 00950101
✅ PASS: A = 9f398e3e, B = f98bc0f3, Result = 99098032
✅ PASS: A = ac782c58, B = 62056bc4, Result = 20002840
✅ PASS: A = 2e36435c, B = 033a4506, Result = 02324104
✅ PASS: A = cd1d509a, B = 0c161918, Result = 0c141018
✅ PASS: A = e2f066c5, B = 5515d1aa, Result = 40104080
✅ PASS: A = 0d12031a, B = 61dbd5c3, Result = 01120102
✅ PASS: A = 5934e9b2, B = 0633630c, Result = 00306100
✅ PASS: A = f4f00ee9, B = 61dafdc3, Result = 60d00cc1
✅ PASS: A = 75ad73eb, B = 7c2db9f8, Result = 742d31e8
✅ PASS: A = 792c03f2, B = 4483ad89, Result = 40000180
✅ PASS: A = 378c736f, B = 0de14b1b, Result = 0580430b
✅ PASS: A = d6a128ad, B = 344dc168, Result = 14010028
✅ PASS: A = 92f91225, B = 67e857cf, Result = 02e81205
✅ PASS: A = 55dd8dab, B = 8d94d21b, Result = 0594800b
✅ PASS: A = c03b3e80, B = 2ed6d95d, Result = 00121800
✅ PASS: A = 412dfd82, B = 82344204, Result = 00244000
✅ PASS: A = 2ba7a557, B = 1b368b36, Result = 0b268116
✅ PASS: A = 196a0332, B = bce32879, Result = 18620030
✅ PASS: A = f24baee4, B = 8b42ec16, Result = 8242ac04
✅ PASS: A = d57fecaa, B = 605065c0, Result = 40506480
✅ PASS: A = 9759882e, B = 4665378c, Result = 0641000c
✅ PASS: A = b8c0c271, B = 7dfe8ffb, Result = 38c08271
✅ PASS: A = 5e5421bc, B = ee7068dc, Result = 4e50209c
✅ PASS: A = 0bec5717, B = e0e004c1, Result = 00e00401
✅ PASS: A = 75fb21eb, B = 5a9d3bb5, Result = 509921a1
✅ PASS: A = c4fd2e89, B = c7b2e28f, Result = c4b02289
✅ PASS: A = dff6f6bf, B = d8462ab0, Result = d84622b0
✅ PASS: A = e9b49ad3, B = eb1d02d6, Result = e91402d2
✅ PASS: A = c144cc82, B = 0d63751a, Result = 01404402
✅ PASS: A = 38e6a771, B = eb8804d7, Result = 28800451
✅ PASS: A = 87628e0e, B = f8c714f1, Result = 80420400
✅ PASS: A = 66861dcd, B = 02bd4305, Result = 02840105
✅ PASS: A = 0e3aeb1c, B = 4c18c798, Result = 0c18c318
✅ PASS: A = f67088ec, B = 9541d62a, Result = 94408028
✅ PASS: A = b2d14a65, B = 1b920537, Result = 12900025
✅ PASS: A = 81fa3603, B = ff729efe, Result = 81721602
✅ PASS: A = feaddcfd, B = 9f7a0e3e, Result = 9e280c3c
✅ PASS: A = f43a34e8, B = ba603874, Result = b0203060
✅ PASS: A = 580989b0, B = 8361dc06, Result = 00018800
✅ PASS: A = 09164d12, B = b46afc68, Result = 00024c00
✅ PASS: A = e2ba00c5, B = ff202efe, Result = e22000c4
✅ PASS: A = 1b0f0d36, B = 799f09f3, Result = 190f0932
✅ PASS: A = 7dddabfb, B = b58d7c6b, Result = 358d286b
✅ PASS: A = 0bcbbf17, B = 87d0360f, Result = 03c03607
✅ PASS: A = 8a47b614, B = 1500052a, Result = 00000400
✅ PASS: A = d3666ea6, B = ea7626d4, Result = c2662684
✅ PASS: A = e5ac10cb, B = b587c26b, Result = a584004b
✅ PASS: A = 0277eb04, B = fa4832f4, Result = 02402204
✅ PASS: A = 468b618d, B = f0ea70e1, Result = 408a6081
✅ PASS: A = 42e3bd85, B = dc9974b9, Result = 40813481
✅ PASS: A = e4df16c9, B = b05f8e60, Result = a05f0640
✅ PASS: A = a3643246, B = 1e74cb3c, Result = 02640204
✅ PASS: A = 1b855f37, B = 2c0c5558, Result = 08045510
✅ PASS: A = 39d65773, B = 8778d20e, Result = 01505202
✅ PASS: A = 6e6d23dc, B = 183fc330, Result = 082d0310
✅ PASS: A = 6845f5d0, B = 0073e500, Result = 0041e500
✅ PASS: A = 21820f43, B = 7c6e91f8, Result = 20020140
✅ PASS: A = d0b99aa1, B = 29c01f53, Result = 00801a01
✅ PASS: A = 4c588f98, B = 2fef3d5f, Result = 0c480d18
✅ PASS: A = c3be9287, B = fd5f5afa, Result = c11e1282
✅ PASS: A = 1699d12d, B = b8760270, Result = 10100020
✅ PASS: A = b5b4e86b, B = 98d73831, Result = 90942821
✅ PASS: A = 892fc012, B = 0650df0c, Result = 0000c000
✅ PASS: A = 06db6b0d, B = 0acd1315, Result = 02c90305
✅ PASS: A = 20310740, B = 4a638d94, Result = 00210500
✅ PASS: A = 2a1ba354, B = c0620280, Result = 00020200
✅ PASS: A = 098d1513, B = e1e386c3, Result = 01810403
✅ PASS: A = f695deed, B = ee4ee6dc, Result = e604c6cc
✅ PASS: A = bc781078, B = 13d40d27, Result = 10500020
✅ PASS: A = afed265f, B = 11c05b23, Result = 01c00203
✅ PASS: A = 5596ebab, B = 1c421738, Result = 14020328
✅ PASS: A = 11534d22, B = 64f2bdc9, Result = 00520d00
✅ PASS: A = e3eb4cc7, B = c1406282, Result = c1404082
✅ PASS: A = 6754d7ce, B = e38e22c7, Result = 630402c6
✅ PASS: A = 927fa424, B = 6da36fdb, Result = 00232400
✅ PASS: A = 84651408, B = 3ac26f75, Result = 00400400
✅ PASS: A = 5ad31db5, B = 8d7d721a, Result = 08511010
✅ PASS: A = 1c2a1338, B = c1233a82, Result = 00221200
✅ PASS: A = ac05a058, B = a85a6a50, Result = a8002050
✅ PASS: A = d1889aa3, B = 5243e3a4, Result = 500082a0
✅ PASS: A = 32c3df65, B = 753c17ea, Result = 30001760
✅ PASS: A = 03703906, B = aa138054, Result = 02100004
✅ PASS: A = adf3405b, B = e455f0c8, Result = a4514048
✅ PASS: A = 24673948, B = 9bf8f237, Result = 00603000
✅ PASS: A = 7c1df3f8, B = da8932b5, Result = 580932b0
✅ PASS: A = 28d6a951, B = 41aed583, Result = 00868101
✅ PASS: A = 4d9ee39b, B = 1aa0dd35, Result = 0880c111
✅ PASS: A = 581653b0, B = fddf82fb, Result = 581602b0

=== Testing OR (A | B) ===
✅ PASS: A = 278dbb4f, B = 984da630, Result = bfcdbf7f
✅ PASS: A = 8c38c418, B = ee8118dd, Result = eeb9dcdd
✅ PASS: A = a36ae846, B = 30e20f61, Result = b3eaef67
✅ PASS: A = ac974859, B = 2af17355, Result = aef77b5d
✅ PASS: A = 178b972f, B = 85ce500b, Result = 97cfd72f
✅ PASS: A = ef1deade, B = e9d22cd3, Result = efdfeedf
